
> print(sessioninfo::session_info())
─ Session info ─────────────────────────────────────────────────────────────────────────────────────────────────────────────────────────────────────────────────────────────
 setting  value                       
 version  R version 4.1.0 (2021-05-18)
 os       macOS Big Sur 11.5.1        
 system   aarch64, darwin20           
 ui       RStudio                     
 language (EN)                        
 collate  en_US.UTF-8                 
 ctype    en_US.UTF-8                 
 tz       Europe/Berlin               
 date     2021-07-29                  

─ Packages ─────────────────────────────────────────────────────────────────────────────────────────────────────────────────────────────────────────────────────────────────
 package      * version    date       lib source                      
 abind          1.4-5      2016-07-21 [1] CRAN (R 4.1.0)              
 assertthat     0.2.1      2019-03-21 [1] CRAN (R 4.1.0)              
 backports      1.2.1      2020-12-09 [1] CRAN (R 4.1.0)              
 base64enc      0.1-3      2015-07-28 [1] CRAN (R 4.1.0)              
 bayestestR     0.10.5     2021-07-26 [1] CRAN (R 4.1.0)              
 BBmisc         1.11       2017-03-10 [1] CRAN (R 4.1.0)              
 bookdown       0.22       2021-04-22 [1] CRAN (R 4.1.0)              
 boot           1.3-28     2021-05-03 [1] CRAN (R 4.1.0)              
 broom          0.7.9      2021-07-27 [1] CRAN (R 4.1.0)              
 careless     * 1.2.1      2021-03-15 [1] CRAN (R 4.1.0)              
 cellranger     1.1.0      2016-07-27 [1] CRAN (R 4.1.0)              
 checkmate      2.0.0      2020-02-06 [1] CRAN (R 4.1.0)              
 cli            3.0.1      2021-07-17 [1] CRAN (R 4.1.0)              
 cluster        2.1.2      2021-04-17 [1] CRAN (R 4.1.0)              
 coda           0.19-4     2020-09-30 [1] CRAN (R 4.1.0)              
 codetools      0.2-18     2020-11-04 [1] CRAN (R 4.1.0)              
 coin           1.4-1      2021-02-08 [1] CRAN (R 4.1.0)              
 colorspace     2.0-2      2021-06-24 [1] CRAN (R 4.1.0)              
 corpcor        1.6.9      2017-04-01 [1] CRAN (R 4.1.0)              
 crayon         1.4.1      2021-02-08 [1] CRAN (R 4.1.0)              
 curl           4.3.2      2021-06-23 [1] CRAN (R 4.1.0)              
 data.table     1.14.0     2021-02-21 [1] CRAN (R 4.1.0)              
 datawizard     0.1.0      2021-06-18 [1] CRAN (R 4.1.0)              
 DBI            1.1.1      2021-01-15 [1] CRAN (R 4.1.0)              
 dbplyr         2.1.1      2021-04-06 [1] CRAN (R 4.1.0)              
 dcurver        0.9.2      2020-11-04 [1] CRAN (R 4.1.0)              
 Deriv          4.1.3      2021-02-24 [1] CRAN (R 4.1.0)              
 digest         0.6.27     2020-10-24 [1] CRAN (R 4.1.0)              
 dplyr        * 1.0.7      2021-06-18 [1] CRAN (R 4.1.0)              
 effectsize     0.4.5      2021-05-25 [1] CRAN (R 4.1.0)              
 ellipsis       0.3.2      2021-04-29 [1] CRAN (R 4.1.0)              
 emmeans        1.6.2-1    2021-07-08 [1] CRAN (R 4.1.0)              
 estimability   1.3        2018-02-11 [1] CRAN (R 4.1.0)              
 evaluate       0.14       2019-05-28 [1] CRAN (R 4.1.0)              
 fansi          0.5.0      2021-05-25 [1] CRAN (R 4.1.0)              
 farver         2.1.0      2021-02-28 [1] CRAN (R 4.1.0)              
 fastmatch      1.1-3      2021-07-23 [1] CRAN (R 4.1.0)              
 fdrtool        1.2.16     2021-01-06 [1] CRAN (R 4.1.0)              
 forcats      * 0.5.1      2021-01-27 [1] CRAN (R 4.1.0)              
 foreign        0.8-81     2020-12-22 [1] CRAN (R 4.1.0)              
 Formula        1.2-4      2020-10-16 [1] CRAN (R 4.1.0)              
 fs             1.5.0      2020-07-31 [1] CRAN (R 4.1.0)              
 generics       0.1.0      2020-10-31 [1] CRAN (R 4.1.0)              
 ggeffects      1.1.0      2021-04-30 [1] CRAN (R 4.1.0)              
 ggforce        0.3.3      2021-03-05 [1] CRAN (R 4.1.0)              
 ggplot2      * 3.3.5      2021-06-25 [1] CRAN (R 4.1.0)              
 ggraph       * 2.0.5      2021-02-23 [1] CRAN (R 4.1.0)              
 ggrepel        0.9.1      2021-01-15 [1] CRAN (R 4.1.0)              
 glasso         1.11       2019-10-01 [1] CRAN (R 4.1.0)              
 glue           1.4.2      2020-08-27 [1] CRAN (R 4.1.0)              
 GPArotation    2014.11-1  2014-11-25 [1] CRAN (R 4.1.0)              
 graphlayouts   0.7.1      2020-10-26 [1] CRAN (R 4.1.0)              
 gridExtra    * 2.3        2017-09-09 [1] CRAN (R 4.1.0)              
 gtable         0.3.0      2019-03-25 [1] CRAN (R 4.1.0)              
 gtools       * 3.9.2      2021-06-06 [1] CRAN (R 4.1.0)              
 haven          2.4.1      2021-04-23 [1] CRAN (R 4.1.0)              
 highr          0.9        2021-04-16 [1] CRAN (R 4.1.0)              
 Hmisc          4.5-0      2021-02-28 [1] CRAN (R 4.1.0)              
 hms            1.1.0      2021-05-17 [1] CRAN (R 4.1.0)              
 htmlTable      2.2.1      2021-05-18 [1] CRAN (R 4.1.0)              
 htmltools      0.5.1.1    2021-01-22 [1] CRAN (R 4.1.0)              
 htmlwidgets    1.5.3      2020-12-10 [1] CRAN (R 4.1.0)              
 httr           1.4.2      2020-07-20 [1] CRAN (R 4.1.0)              
 igraph         1.2.6      2020-10-06 [1] CRAN (R 4.1.0)              
 ineq         * 0.2-13     2014-07-21 [1] CRAN (R 4.1.0)              
 insight      * 0.14.2     2021-06-22 [1] CRAN (R 4.1.0)              
 jpeg           0.1-9      2021-07-24 [1] CRAN (R 4.1.0)              
 jsonlite       1.7.2      2020-12-09 [1] CRAN (R 4.1.0)              
 kableExtra   * 1.3.4      2021-02-20 [1] CRAN (R 4.1.0)              
 knitr        * 1.33       2021-04-24 [1] CRAN (R 4.1.0)              
 labeling       0.4.2      2020-10-20 [1] CRAN (R 4.1.0)              
 lattice      * 0.20-44    2021-05-02 [1] CRAN (R 4.1.0)              
 latticeExtra   0.6-29     2019-12-19 [1] CRAN (R 4.1.0)              
 lavaan         0.6-9      2021-06-27 [1] CRAN (R 4.1.0)              
 lazyeval       0.2.2      2019-03-15 [1] CRAN (R 4.1.0)              
 libcoin        1.0-8      2021-02-08 [1] CRAN (R 4.1.0)              
 lifecycle      1.0.0      2021-02-15 [1] CRAN (R 4.1.0)              
 lme4         * 1.1-27.1   2021-06-22 [1] CRAN (R 4.1.0)              
 lubridate      1.7.10     2021-02-26 [1] CRAN (R 4.1.0)              
 maditr       * 0.8.2      2021-05-24 [1] CRAN (R 4.1.0)              
 magrittr       2.0.1      2020-11-17 [1] CRAN (R 4.1.0)              
 MASS           7.3-54     2021-05-03 [1] CRAN (R 4.1.0)              
 Matrix       * 1.3-4      2021-06-01 [1] CRAN (R 4.1.0)              
 matrixStats    0.59.0     2021-06-01 [1] CRAN (R 4.1.0)              
 MBESS        * 4.8.0      2020-08-05 [1] CRAN (R 4.1.0)              
 measures     * 0.3        2021-01-19 [1] CRAN (R 4.1.0)              
 mgcv           1.8-36     2021-06-01 [1] CRAN (R 4.1.0)              
 minqa          1.2.4      2014-10-09 [1] CRAN (R 4.1.0)              
 mirt         * 1.34       2021-06-28 [1] CRAN (R 4.1.0)              
 mlr          * 2.19.0     2021-02-22 [1] CRAN (R 4.1.0)              
 mnormt         2.0.2      2020-09-01 [1] CRAN (R 4.1.0)              
 modelr         0.1.8      2020-05-19 [1] CRAN (R 4.1.0)              
 modeltools   * 0.2-23     2020-03-05 [1] CRAN (R 4.1.0)              
 moreparty    * 0.2.1      2021-07-14 [1] CRAN (R 4.1.0)              
 multcomp       1.4-17     2021-04-29 [1] CRAN (R 4.1.0)              
 munsell        0.5.0      2018-06-12 [1] CRAN (R 4.1.0)              
 mvtnorm      * 1.1-2      2021-06-07 [1] CRAN (R 4.1.0)              
 nlme           3.1-152    2021-02-04 [1] CRAN (R 4.1.0)              
 nloptr         1.2.2.2    2020-07-02 [1] CRAN (R 4.1.0)              
 nnet           7.3-16     2021-05-03 [1] CRAN (R 4.1.0)              
 openxlsx       4.2.4      2021-06-16 [1] CRAN (R 4.1.0)              
 papaja       * 0.1.0.9997 2021-06-08 [1] Github (crsh/papaja@a231c36)
 parallelMap    1.5.1      2021-06-28 [1] CRAN (R 4.1.0)              
 parameters     0.14.0     2021-05-29 [1] CRAN (R 4.1.0)              
 ParamHelpers * 1.14       2020-03-24 [1] CRAN (R 4.1.0)              
 party        * 1.3-7      2021-03-03 [1] CRAN (R 4.1.0)              
 patchwork    * 1.1.1      2020-12-17 [1] CRAN (R 4.1.0)              
 pbapply        1.4-3      2020-08-18 [1] CRAN (R 4.1.0)              
 pbivnorm       0.6.0      2015-01-23 [1] CRAN (R 4.1.0)              
 performance    0.7.3      2021-07-21 [1] CRAN (R 4.1.0)              
 permute        0.9-5      2019-03-12 [1] CRAN (R 4.1.0)              
 pillar         1.6.1      2021-05-16 [1] CRAN (R 4.1.0)              
 pkgconfig      2.0.3      2019-09-22 [1] CRAN (R 4.1.0)              
 plotly       * 4.9.4.1    2021-06-18 [1] CRAN (R 4.1.0)              
 plyr           1.8.6      2020-03-03 [1] CRAN (R 4.1.0)              
 png            0.1-7      2013-12-03 [1] CRAN (R 4.1.0)              
 polyclip       1.10-0     2019-03-14 [1] CRAN (R 4.1.0)              
 psych        * 2.1.6      2021-06-18 [1] CRAN (R 4.1.0)              
 purrr        * 0.3.4      2020-04-17 [1] CRAN (R 4.1.0)              
 qgraph         1.6.9      2021-01-28 [1] CRAN (R 4.1.0)              
 R6             2.5.0      2020-10-28 [1] CRAN (R 4.1.0)              
 ranger       * 0.13.1     2021-07-14 [1] CRAN (R 4.1.0)              
 RColorBrewer   1.1-2      2014-12-07 [1] CRAN (R 4.1.0)              
 Rcpp           1.0.7      2021-07-07 [1] CRAN (R 4.1.0)              
 readr        * 2.0.0      2021-07-20 [1] CRAN (R 4.1.0)              
 readxl         1.3.1      2019-03-13 [1] CRAN (R 4.1.0)              
 reprex         2.0.0      2021-04-02 [1] CRAN (R 4.1.0)              
 reshape2     * 1.4.4      2020-04-09 [1] CRAN (R 4.1.0)              
 rio          * 0.5.27     2021-06-21 [1] CRAN (R 4.1.0)              
 rlang          0.4.11     2021-04-30 [1] CRAN (R 4.1.0)              
 rmarkdown      2.9        2021-06-15 [1] CRAN (R 4.1.0)              
 rmdfiltr       0.1.3      2020-11-25 [1] CRAN (R 4.1.0)              
 rpart          4.1-15     2019-04-12 [1] CRAN (R 4.1.0)              
 rstudioapi     0.13       2020-11-12 [1] CRAN (R 4.1.0)              
 rvest          1.0.1      2021-07-26 [1] CRAN (R 4.1.0)              
 sandwich     * 3.0-1      2021-05-18 [1] CRAN (R 4.1.0)              
 scales         1.1.1      2020-05-11 [1] CRAN (R 4.1.0)              
 sessioninfo    1.1.1      2018-11-05 [1] CRAN (R 4.1.0)              
 sjlabelled     1.1.8      2021-05-11 [1] CRAN (R 4.1.0)              
 sjmisc         2.8.7      2021-05-12 [1] CRAN (R 4.1.0)              
 sjPlot       * 2.8.9      2021-07-10 [1] CRAN (R 4.1.0)              
 sjstats        0.18.1     2021-01-09 [1] CRAN (R 4.1.0)              
 stringi        1.7.3      2021-07-16 [1] CRAN (R 4.1.0)              
 stringr      * 1.4.0      2019-02-10 [1] CRAN (R 4.1.0)              
 strucchange  * 1.5-2      2019-10-12 [1] CRAN (R 4.1.0)              
 survival       3.2-11     2021-04-26 [1] CRAN (R 4.1.0)              
 svglite        2.0.0      2021-02-20 [1] CRAN (R 4.1.0)              
 systemfonts    1.0.2      2021-05-11 [1] CRAN (R 4.1.0)              
 TH.data        1.0-10     2019-01-21 [1] CRAN (R 4.1.0)              
 tibble       * 3.1.3      2021-07-23 [1] CRAN (R 4.1.0)              
 tidygraph      1.2.0      2020-05-12 [1] CRAN (R 4.1.0)              
 tidyr        * 1.1.3      2021-03-03 [1] CRAN (R 4.1.0)              
 tidyselect     1.1.1      2021-04-30 [1] CRAN (R 4.1.0)              
 tidyverse    * 1.3.1      2021-04-15 [1] CRAN (R 4.1.0)              
 tinytex        0.32       2021-05-29 [1] CRAN (R 4.1.0)              
 tmvnsim        1.0-2      2016-12-15 [1] CRAN (R 4.1.0)              
 tweenr         1.0.2      2021-03-23 [1] CRAN (R 4.1.0)              
 tzdb           0.1.2      2021-07-20 [1] CRAN (R 4.1.0)              
 utf8           1.2.2      2021-07-24 [1] CRAN (R 4.1.0)              
 varImp         0.4        2020-05-23 [1] CRAN (R 4.1.0)              
 vctrs          0.3.8      2021-04-29 [1] CRAN (R 4.1.0)              
 vegan          2.5-7      2020-11-28 [1] CRAN (R 4.1.0)              
 viridis        0.6.1      2021-05-11 [1] CRAN (R 4.1.0)              
 viridisLite    0.4.0      2021-04-13 [1] CRAN (R 4.1.0)              
 webshot        0.5.2      2019-11-22 [1] CRAN (R 4.1.0)              
 wesanderson  * 0.3.6      2018-04-20 [1] CRAN (R 4.1.0)              
 withr          2.4.2      2021-04-18 [1] CRAN (R 4.1.0)              
 xfun           0.24       2021-06-15 [1] CRAN (R 4.1.0)              
 xml2           1.3.2      2020-04-23 [1] CRAN (R 4.1.0)              
 xtable         1.8-4      2019-04-21 [1] CRAN (R 4.1.0)              
 yaml           2.2.1      2020-02-01 [1] CRAN (R 4.1.0)              
 zip            2.2.0      2021-05-31 [1] CRAN (R 4.1.0)              
 zoo          * 1.8-9      2021-03-09 [1] CRAN (R 4.1.0)              

[1] /Library/Frameworks/R.framework/Versions/4.1-arm64/Resources/library

> sink()
